{
    "odata.metadata":"http://88.87.88.93:3280/college_test/odata/standard.odata/$metadata#InformationRegister_РасписаниеНаДату",
    "value":
	[
        { /* Суббота */
            "Recorder_Key":"985228e4-cc35-11e5-80c0-001e67e6bfa8",
            "RecordSet":[
                {
                    "LineNumber":"1",
                    "Active":true,
                    "Организация_Key":"db823ef1-eb90-4fd1-b88d-207dd67b9e20",
                    "ПериодОбучения_Key":"31793bbe-cc16-11e5-80c0-001e67e6bfa8",
                    "УчебнаяГруппа_Key":"G1",
                    "ДеньНедели":"Суббота",
                    "ВидНедели":"Четная",
                    "Подгруппа":0,
                    "НомерПары":1,
                    "ДатаРасписания":"2016-02-06T00:00:00",
                    "Дисциплина":"L3",
                    "Дисциплина_Type":"StandardODATA.Catalog_Дисциплины",
                    "Преподаватель_Key":"00000000-0000-0000-0000-000000000000",
                    "Аудитория_Key":"AUD1",
                    "Территория_Key":"00000000-0000-0000-0000-000000000000"
                },
                {
                    "LineNumber":"2",
                    "Active":true,
                    "Организация_Key":"db823ef1-eb90-4fd1-b88d-207dd67b9e20",
                    "ПериодОбучения_Key":"31793bbe-cc16-11e5-80c0-001e67e6bfa8",
                    "УчебнаяГруппа_Key":"G1",
                    "ДеньНедели":"Суббота",
                    "ВидНедели":"Четная",
                    "Подгруппа":0,
                    "НомерПары":2,
                    "ДатаРасписания":"2016-02-06T00:00:00",
                    "Дисциплина":"L4",
                    "Дисциплина_Type":"StandardODATA.Catalog_Дисциплины",
                    "Преподаватель_Key":"72b1687e-7e0a-11e5-80bd-d4ae52b28930",
                    "Аудитория_Key":"AUD2",
                    "Территория_Key":"4197d8a9-cc2e-11e5-80c0-001e67e6bfa8"
                },
                {
                    "LineNumber":"3",
                    "Active":true,
                    "Организация_Key":"db823ef1-eb90-4fd1-b88d-207dd67b9e20",
                    "ПериодОбучения_Key":"31793bbe-cc16-11e5-80c0-001e67e6bfa8",
                    "УчебнаяГруппа_Key":"G1",
                    "ДеньНедели":"Суббота",
                    "ВидНедели":"Четная",
                    "Подгруппа":0,
                    "НомерПары":3,
                    "ДатаРасписания":"2016-02-06T00:00:00",
                    "Дисциплина":"L2",
                    "Дисциплина_Type":"StandardODATA.Catalog_Дисциплины",
                    "Преподаватель_Key":"72b1687e-7e0a-11e5-80bd-d4ae52b28930",
                    "Аудитория_Key":"AUD2",
                    "Территория_Key":"4197d8a9-cc2e-11e5-80c0-001e67e6bfa8"
                }
            ]
        },
        { /* Понедельник */
            "Recorder_Key":"97f48b48-d305-11e5-80c0-001e67e6bfa8",
            "RecordSet":[
                {
                    "LineNumber":"1",
                    "Active":true,
                    "Организация_Key":"db823ef1-eb90-4fd1-b88d-207dd67b9e20",
                    "ПериодОбучения_Key":"31793bbe-cc16-11e5-80c0-001e67e6bfa8",
                    "УчебнаяГруппа_Key":"G1",
                    "ДеньНедели":"Понедельник",
                    "ВидНедели":"Четная",
                    "Подгруппа":1,
                    "НомерПары":1,
                    "ДатаРасписания":"2016-02-15T00:00:00",
                    "Дисциплина":"L1",
                    "Дисциплина_Type":"StandardODATA.Catalog_Дисциплины",
                    "Преподаватель_Key":"72b16771-7e0a-11e5-80bd-d4ae52b28930",
                    "Аудитория_Key":"AUD3",
                    "Территория_Key":"4197d8a9-cc2e-11e5-80c0-001e67e6bfa8"
                },
                {
                    "LineNumber":"2",
                    "Active":true,
                    "Организация_Key":"db823ef1-eb90-4fd1-b88d-207dd67b9e20",
                    "ПериодОбучения_Key":"31793bbe-cc16-11e5-80c0-001e67e6bfa8",
                    "УчебнаяГруппа_Key":"G1",
                    "ДеньНедели":"Понедельник",
                    "ВидНедели":"Четная",
                    "Подгруппа":1,
                    "НомерПары":2,
                    "ДатаРасписания":"2016-02-15T00:00:00",
                    "Дисциплина":"L5",
                    "Дисциплина_Type":"StandardODATA.Catalog_Дисциплины",
                    "Преподаватель_Key":"72b16503-7e0a-11e5-80bd-d4ae52b28930",
                    "Аудитория_Key":"AUD3",
                    "Территория_Key":"4197d8a9-cc2e-11e5-80c0-001e67e6bfa8"
                }
            ]
        },
        { /* Вторник */
            "Recorder_Key":"7d71f53b-d311-11e5-80c0-001e67e6bfa8",
            "RecordSet":[
                {
                    "LineNumber":"1",
                    "Active":true,
                    "Организация_Key":"db823ef1-eb90-4fd1-b88d-207dd67b9e20",
                    "ПериодОбучения_Key":"31793bbe-cc16-11e5-80c0-001e67e6bfa8",
                    "УчебнаяГруппа_Key":"G1",
                    "ДеньНедели":"Вторник",
                    "ВидНедели":"Четная",
                    "Подгруппа":1,
                    "НомерПары":1,
                    "ДатаРасписания":"2016-02-16T00:00:00",
                    "Дисциплина":"L4",
                    "Дисциплина_Type":"StandardODATA.Catalog_Дисциплины",
                    "Преподаватель_Key":"72b16287-7e0a-11e5-80bd-d4ae52b28930",
                    "Аудитория_Key":"AUD2",
                    "Территория_Key":"4197d8a9-cc2e-11e5-80c0-001e67e6bfa8"
                },
                {
                    "LineNumber":"2",
                    "Active":true,
                    "Организация_Key":"db823ef1-eb90-4fd1-b88d-207dd67b9e20",
                    "ПериодОбучения_Key":"31793bbe-cc16-11e5-80c0-001e67e6bfa8",
                    "УчебнаяГруппа_Key":"G1",
                    "ДеньНедели":"Вторник",
                    "ВидНедели":"Четная",
                    "Подгруппа":0,
                    "НомерПары":2,
                    "ДатаРасписания":"2016-02-16T00:00:00",
                    "Дисциплина":"L3",
                    "Дисциплина_Type":"StandardODATA.Catalog_Дисциплины",
                    "Преподаватель_Key":"72b1658f-7e0a-11e5-80bd-d4ae52b28930",
                    "Аудитория_Key":"AUD1",
                    "Территория_Key":"4197d8a9-cc2e-11e5-80c0-001e67e6bfa8"
                },
                {
                    "LineNumber":"3",
                    "Active":true,
                    "Организация_Key":"db823ef1-eb90-4fd1-b88d-207dd67b9e20",
                    "ПериодОбучения_Key":"31793bbe-cc16-11e5-80c0-001e67e6bfa8",
                    "УчебнаяГруппа_Key":"G1",
                    "ДеньНедели":"Вторник",
                    "ВидНедели":"Четная",
                    "Подгруппа":0,
                    "НомерПары":3,
                    "ДатаРасписания":"2016-02-16T00:00:00",
                    "Дисциплина":"L1",
                    "Дисциплина_Type":"StandardODATA.Catalog_Дисциплины",
                    "Преподаватель_Key":"72b16503-7e0a-11e5-80bd-d4ae52b28930",
                    "Аудитория_Key":"AUD1",
                    "Территория_Key":"4197d8a9-cc2e-11e5-80c0-001e67e6bfa8"
                },
                {
                    "LineNumber":"4",
                    "Active":true,
                    "Организация_Key":"db823ef1-eb90-4fd1-b88d-207dd67b9e20",
                    "ПериодОбучения_Key":"31793bbe-cc16-11e5-80c0-001e67e6bfa8",
                    "УчебнаяГруппа_Key":"G1",
                    "ДеньНедели":"Вторник",
                    "ВидНедели":"Четная",
                    "Подгруппа":1,
                    "НомерПары":4,
                    "ДатаРасписания":"2016-02-16T00:00:00",
                    "Дисциплина":"L2",
                    "Дисциплина_Type":"StandardODATA.Catalog_Дисциплины",
                    "Преподаватель_Key":"72b1658f-7e0a-11e5-80bd-d4ae52b28930",
                    "Аудитория_Key":"AUD2",
                    "Территория_Key":"4197d8a9-cc2e-11e5-80c0-001e67e6bfa8"
                }
            ]
        },
        { /* Среда */
            "Recorder_Key":"fd938a04-d311-11e5-80c0-001e67e6bfa8",
            "RecordSet":[
                {
                    "LineNumber":"1",
                    "Active":true,
                    "Организация_Key":"db823ef1-eb90-4fd1-b88d-207dd67b9e20",
                    "ПериодОбучения_Key":"31793bbe-cc16-11e5-80c0-001e67e6bfa8",
                    "УчебнаяГруппа_Key":"G1",
                    "ДеньНедели":"Среда",
                    "ВидНедели":"Четная",
                    "Подгруппа":1,
                    "НомерПары":1,
                    "ДатаРасписания":"2016-02-17T00:00:00",
                    "Дисциплина":"L3",
                    "Дисциплина_Type":"StandardODATA.Catalog_Дисциплины",
                    "Преподаватель_Key":"c459514e-ed92-11e4-80bc-d4ae52b28930",
                    "Аудитория_Key":"AUD3",
                    "Территория_Key":"4197d8a9-cc2e-11e5-80c0-001e67e6bfa8"
                },
                {
                    "LineNumber":"2",
                    "Active":true,
                    "Организация_Key":"db823ef1-eb90-4fd1-b88d-207dd67b9e20",
                    "ПериодОбучения_Key":"31793bbe-cc16-11e5-80c0-001e67e6bfa8",
                    "УчебнаяГруппа_Key":"G1",
                    "ДеньНедели":"Среда",
                    "ВидНедели":"Четная",
                    "Подгруппа":1,
                    "НомерПары":2,
                    "ДатаРасписания":"2016-02-17T00:00:00",
                    "Дисциплина":"L7",
                    "Дисциплина_Type":"StandardODATA.Catalog_Дисциплины",
                    "Преподаватель_Key":"72b16863-7e0a-11e5-80bd-d4ae52b28930",
                    "Аудитория_Key":"AUD1",
                    "Территория_Key":"4197d8a9-cc2e-11e5-80c0-001e67e6bfa8"
                },
                {
                    "LineNumber":"3",
                    "Active":true,
                    "Организация_Key":"db823ef1-eb90-4fd1-b88d-207dd67b9e20",
                    "ПериодОбучения_Key":"31793bbe-cc16-11e5-80c0-001e67e6bfa8",
                    "УчебнаяГруппа_Key":"G1",
                    "ДеньНедели":"Среда",
                    "ВидНедели":"Четная",
                    "Подгруппа":1,
                    "НомерПары":3,
                    "ДатаРасписания":"2016-02-17T00:00:00",
                    "Дисциплина":"L5",
                    "Дисциплина_Type":"StandardODATA.Catalog_Дисциплины",
                    "Преподаватель_Key":"72b16308-7e0a-11e5-80bd-d4ae52b28930",
                    "Аудитория_Key":"AUD2",
                    "Территория_Key":"4197d8a9-cc2e-11e5-80c0-001e67e6bfa8"
                },
                {
                    "LineNumber":"4",
                    "Active":true,
                    "Организация_Key":"db823ef1-eb90-4fd1-b88d-207dd67b9e20",
                    "ПериодОбучения_Key":"31793bbe-cc16-11e5-80c0-001e67e6bfa8",
                    "УчебнаяГруппа_Key":"G1",
                    "ДеньНедели":"Среда",
                    "ВидНедели":"Четная",
                    "Подгруппа":1,
                    "НомерПары":4,
                    "ДатаРасписания":"2016-02-17T00:00:00",
                    "Дисциплина":"L7",
                    "Дисциплина_Type":"StandardODATA.Catalog_Дисциплины",
                    "Преподаватель_Key":"72b162fe-7e0a-11e5-80bd-d4ae52b28930",
                    "Аудитория_Key":"AUD2",
                    "Территория_Key":"4197d8a9-cc2e-11e5-80c0-001e67e6bfa8"
                }
            ]
        },
        { /* Четверг */
            "Recorder_Key":"472d9b3e-d312-11e5-80c0-001e67e6bfa8",
            "RecordSet":[
                {
                    "LineNumber":"1",
                    "Active":true,
                    "Организация_Key":"db823ef1-eb90-4fd1-b88d-207dd67b9e20",
                    "ПериодОбучения_Key":"31793bbe-cc16-11e5-80c0-001e67e6bfa8",
                    "УчебнаяГруппа_Key":"G1",
                    "ДеньНедели":"Четверг",
                    "ВидНедели":"Четная",
                    "Подгруппа":1,
                    "НомерПары":1,
                    "ДатаРасписания":"2016-02-18T00:00:00",
                    "Дисциплина":"L6",
                    "Дисциплина_Type":"StandardODATA.Catalog_Дисциплины",
                    "Преподаватель_Key":"72b161f3-7e0a-11e5-80bd-d4ae52b28930",
                    "Аудитория_Key":"AUD1",
                    "Территория_Key":"4197d8a9-cc2e-11e5-80c0-001e67e6bfa8"
                },
                {
                    "LineNumber":"2",
                    "Active":true,
                    "Организация_Key":"db823ef1-eb90-4fd1-b88d-207dd67b9e20",
                    "ПериодОбучения_Key":"31793bbe-cc16-11e5-80c0-001e67e6bfa8",
                    "УчебнаяГруппа_Key":"G1",
                    "ДеньНедели":"Четверг",
                    "ВидНедели":"Четная",
                    "Подгруппа":1,
                    "НомерПары":2,
                    "ДатаРасписания":"2016-02-18T00:00:00",
                    "Дисциплина":"L8",
                    "Дисциплина_Type":"StandardODATA.Catalog_Дисциплины",
                    "Преподаватель_Key":"72b16469-7e0a-11e5-80bd-d4ae52b28930",
                    "Аудитория_Key":"AUD3",
                    "Территория_Key":"4197d8a9-cc2e-11e5-80c0-001e67e6bfa8"
                },
                {
                    "LineNumber":"3",
                    "Active":true,
                    "Организация_Key":"db823ef1-eb90-4fd1-b88d-207dd67b9e20",
                    "ПериодОбучения_Key":"31793bbe-cc16-11e5-80c0-001e67e6bfa8",
                    "УчебнаяГруппа_Key":"G1",
                    "ДеньНедели":"Четверг",
                    "ВидНедели":"Четная",
                    "Подгруппа":1,
                    "НомерПары":3,
                    "ДатаРасписания":"2016-02-18T00:00:00",
                    "Дисциплина":"L6",
                    "Дисциплина_Type":"StandardODATA.Catalog_Дисциплины",
                    "Преподаватель_Key":"72b16842-7e0a-11e5-80bd-d4ae52b28930",
                    "Аудитория_Key":"AUD2",
                    "Территория_Key":"4197d8a9-cc2e-11e5-80c0-001e67e6bfa8"
                },
                {
                    "LineNumber":"4",
                    "Active":true,
                    "Организация_Key":"db823ef1-eb90-4fd1-b88d-207dd67b9e20",
                    "ПериодОбучения_Key":"31793bbe-cc16-11e5-80c0-001e67e6bfa8",
                    "УчебнаяГруппа_Key":"G1",
                    "ДеньНедели":"Четверг",
                    "ВидНедели":"Четная",
                    "Подгруппа":1,
                    "НомерПары":4,
                    "ДатаРасписания":"2016-02-18T00:00:00",
                    "Дисциплина":"L4",
                    "Дисциплина_Type":"StandardODATA.Catalog_Дисциплины",
                    "Преподаватель_Key":"72b16728-7e0a-11e5-80bd-d4ae52b28930",
                    "Аудитория_Key":"AUD2",
                    "Территория_Key":"4197d8a9-cc2e-11e5-80c0-001e67e6bfa8"
                }
            ]
        },
        { /* Пятница */
            "Recorder_Key":"ba8f2834-d312-11e5-80c0-001e67e6bfa8",
            "RecordSet":[
                {
                    "LineNumber":"1",
                    "Active":true,
                    "Организация_Key":"db823ef1-eb90-4fd1-b88d-207dd67b9e20",
                    "ПериодОбучения_Key":"31793bbe-cc16-11e5-80c0-001e67e6bfa8",
                    "УчебнаяГруппа_Key":"G1",
                    "ДеньНедели":"Пятница",
                    "ВидНедели":"Четная",
                    "Подгруппа":1,
                    "НомерПары":1,
                    "ДатаРасписания":"2016-02-19T00:00:00",
                    "Дисциплина":"L3",
                    "Дисциплина_Type":"StandardODATA.Catalog_Дисциплины",
                    "Преподаватель_Key":"72b1687e-7e0a-11e5-80bd-d4ae52b28930",
                    "Аудитория_Key":"AUD2",
                    "Территория_Key":"4197d8a9-cc2e-11e5-80c0-001e67e6bfa8"
                },
                {
                    "LineNumber":"2",
                    "Active":true,
                    "Организация_Key":"db823ef1-eb90-4fd1-b88d-207dd67b9e20",
                    "ПериодОбучения_Key":"31793bbe-cc16-11e5-80c0-001e67e6bfa8",
                    "УчебнаяГруппа_Key":"G1",
                    "ДеньНедели":"Пятница",
                    "ВидНедели":"Четная",
                    "Подгруппа":1,
                    "НомерПары":2,
                    "ДатаРасписания":"2016-02-19T00:00:00",
                    "Дисциплина":"L2",
                    "Дисциплина_Type":"StandardODATA.Catalog_Дисциплины",
                    "Преподаватель_Key":"72b1675f-7e0a-11e5-80bd-d4ae52b28930",
                    "Аудитория_Key":"AUD2",
                    "Территория_Key":"4197d8a9-cc2e-11e5-80c0-001e67e6bfa8"
                },
                {
                    "LineNumber":"3",
                    "Active":true,
                    "Организация_Key":"db823ef1-eb90-4fd1-b88d-207dd67b9e20",
                    "ПериодОбучения_Key":"31793bbe-cc16-11e5-80c0-001e67e6bfa8",
                    "УчебнаяГруппа_Key":"G1",
                    "ДеньНедели":"Пятница",
                    "ВидНедели":"Четная",
                    "Подгруппа":1,
                    "НомерПары":3,
                    "ДатаРасписания":"2016-02-19T00:00:00",
                    "Дисциплина":"L8",
                    "Дисциплина_Type":"StandardODATA.Catalog_Дисциплины",
                    "Преподаватель_Key":"72b1652f-7e0a-11e5-80bd-d4ae52b28930",
                    "Аудитория_Key":"AUD1",
                    "Территория_Key":"4197d8a9-cc2e-11e5-80c0-001e67e6bfa8"
                }
            ]
        },
		
        { /* Суббота */
            "Recorder_Key":"985228e4-cc35-11e5-80c0-001e67e6bfa8",
            "RecordSet":[
                {
                    "LineNumber":"1",
                    "Active":true,
                    "Организация_Key":"db823ef1-eb90-4fd1-b88d-207dd67b9e20",
                    "ПериодОбучения_Key":"31793bbe-cc16-11e5-80c0-001e67e6bfa8",
                    "УчебнаяГруппа_Key":"G2",
                    "ДеньНедели":"Суббота",
                    "ВидНедели":"Четная",
                    "Подгруппа":0,
                    "НомерПары":1,
                    "ДатаРасписания":"2016-02-06T00:00:00",
                    "Дисциплина":"L3",
                    "Дисциплина_Type":"StandardODATA.Catalog_Дисциплины",
                    "Преподаватель_Key":"00000000-0000-0000-0000-000000000000",
                    "Аудитория_Key":"AUD1",
                    "Территория_Key":"00000000-0000-0000-0000-000000000000"
                }
            ]
        },
        { /* Понедельник */
            "Recorder_Key":"97f48b48-d305-11e5-80c0-001e67e6bfa8",
            "RecordSet":[
                {
                    "LineNumber":"1",
                    "Active":true,
                    "Организация_Key":"db823ef1-eb90-4fd1-b88d-207dd67b9e20",
                    "ПериодОбучения_Key":"31793bbe-cc16-11e5-80c0-001e67e6bfa8",
                    "УчебнаяГруппа_Key":"G2",
                    "ДеньНедели":"Понедельник",
                    "ВидНедели":"Четная",
                    "Подгруппа":1,
                    "НомерПары":1,
                    "ДатаРасписания":"2016-02-15T00:00:00",
                    "Дисциплина":"L7",
                    "Дисциплина_Type":"StandardODATA.Catalog_Дисциплины",
                    "Преподаватель_Key":"72b16771-7e0a-11e5-80bd-d4ae52b28930",
                    "Аудитория_Key":"AUD3",
                    "Территория_Key":"4197d8a9-cc2e-11e5-80c0-001e67e6bfa8"
                },
                {
                    "LineNumber":"2",
                    "Active":true,
                    "Организация_Key":"db823ef1-eb90-4fd1-b88d-207dd67b9e20",
                    "ПериодОбучения_Key":"31793bbe-cc16-11e5-80c0-001e67e6bfa8",
                    "УчебнаяГруппа_Key":"G2",
                    "ДеньНедели":"Понедельник",
                    "ВидНедели":"Четная",
                    "Подгруппа":1,
                    "НомерПары":2,
                    "ДатаРасписания":"2016-02-15T00:00:00",
                    "Дисциплина":"L7",
                    "Дисциплина_Type":"StandardODATA.Catalog_Дисциплины",
                    "Преподаватель_Key":"72b16503-7e0a-11e5-80bd-d4ae52b28930",
                    "Аудитория_Key":"AUD1",
                    "Территория_Key":"4197d8a9-cc2e-11e5-80c0-001e67e6bfa8"
                },
				
            ]
        },
        { /* Вторник */
            "Recorder_Key":"7d71f53b-d311-11e5-80c0-001e67e6bfa8",
            "RecordSet":[
                {
                    "LineNumber":"1",
                    "Active":true,
                    "Организация_Key":"db823ef1-eb90-4fd1-b88d-207dd67b9e20",
                    "ПериодОбучения_Key":"31793bbe-cc16-11e5-80c0-001e67e6bfa8",
                    "УчебнаяГруппа_Key":"G2",
                    "ДеньНедели":"Вторник",
                    "ВидНедели":"Четная",
                    "Подгруппа":1,
                    "НомерПары":1,
                    "ДатаРасписания":"2016-02-16T00:00:00",
                    "Дисциплина":"L1",
                    "Дисциплина_Type":"StandardODATA.Catalog_Дисциплины",
                    "Преподаватель_Key":"72b16287-7e0a-11e5-80bd-d4ae52b28930",
                    "Аудитория_Key":"AUD2",
                    "Территория_Key":"4197d8a9-cc2e-11e5-80c0-001e67e6bfa8"
                },
                {
                    "LineNumber":"2",
                    "Active":true,
                    "Организация_Key":"db823ef1-eb90-4fd1-b88d-207dd67b9e20",
                    "ПериодОбучения_Key":"31793bbe-cc16-11e5-80c0-001e67e6bfa8",
                    "УчебнаяГруппа_Key":"G2",
                    "ДеньНедели":"Вторник",
                    "ВидНедели":"Четная",
                    "Подгруппа":0,
                    "НомерПары":2,
                    "ДатаРасписания":"2016-02-16T00:00:00",
                    "Дисциплина":"L6",
                    "Дисциплина_Type":"StandardODATA.Catalog_Дисциплины",
                    "Преподаватель_Key":"72b1658f-7e0a-11e5-80bd-d4ae52b28930",
                    "Аудитория_Key":"AUD1",
                    "Территория_Key":"4197d8a9-cc2e-11e5-80c0-001e67e6bfa8"
                },
                {
                    "LineNumber":"3",
                    "Active":true,
                    "Организация_Key":"db823ef1-eb90-4fd1-b88d-207dd67b9e20",
                    "ПериодОбучения_Key":"31793bbe-cc16-11e5-80c0-001e67e6bfa8",
                    "УчебнаяГруппа_Key":"G2",
                    "ДеньНедели":"Вторник",
                    "ВидНедели":"Четная",
                    "Подгруппа":0,
                    "НомерПары":3,
                    "ДатаРасписания":"2016-02-16T00:00:00",
                    "Дисциплина":"L3",
                    "Дисциплина_Type":"StandardODATA.Catalog_Дисциплины",
                    "Преподаватель_Key":"72b16503-7e0a-11e5-80bd-d4ae52b28930",
                    "Аудитория_Key":"AUD2",
                    "Территория_Key":"4197d8a9-cc2e-11e5-80c0-001e67e6bfa8"
                }
            ]
        },
        { /* Среда */
            "Recorder_Key":"fd938a04-d311-11e5-80c0-001e67e6bfa8",
            "RecordSet":[
                {
                    "LineNumber":"1",
                    "Active":true,
                    "Организация_Key":"db823ef1-eb90-4fd1-b88d-207dd67b9e20",
                    "ПериодОбучения_Key":"31793bbe-cc16-11e5-80c0-001e67e6bfa8",
                    "УчебнаяГруппа_Key":"G2",
                    "ДеньНедели":"Среда",
                    "ВидНедели":"Четная",
                    "Подгруппа":1,
                    "НомерПары":1,
                    "ДатаРасписания":"2016-02-17T00:00:00",
                    "Дисциплина":"L7",
                    "Дисциплина_Type":"StandardODATA.Catalog_Дисциплины",
                    "Преподаватель_Key":"c459514e-ed92-11e4-80bc-d4ae52b28930",
                    "Аудитория_Key":"AUD1",
                    "Территория_Key":"4197d8a9-cc2e-11e5-80c0-001e67e6bfa8"
                }
            ]
        },
        { /* Четверг */
            "Recorder_Key":"472d9b3e-d312-11e5-80c0-001e67e6bfa8",
            "RecordSet":[
                {
                    "LineNumber":"1",
                    "Active":true,
                    "Организация_Key":"db823ef1-eb90-4fd1-b88d-207dd67b9e20",
                    "ПериодОбучения_Key":"31793bbe-cc16-11e5-80c0-001e67e6bfa8",
                    "УчебнаяГруппа_Key":"G2",
                    "ДеньНедели":"Четверг",
                    "ВидНедели":"Четная",
                    "Подгруппа":1,
                    "НомерПары":1,
                    "ДатаРасписания":"2016-02-18T00:00:00",
                    "Дисциплина":"L3",
                    "Дисциплина_Type":"StandardODATA.Catalog_Дисциплины",
                    "Преподаватель_Key":"72b161f3-7e0a-11e5-80bd-d4ae52b28930",
                    "Аудитория_Key":"AUD1",
                    "Территория_Key":"4197d8a9-cc2e-11e5-80c0-001e67e6bfa8"
                },
                {
                    "LineNumber":"2",
                    "Active":true,
                    "Организация_Key":"db823ef1-eb90-4fd1-b88d-207dd67b9e20",
                    "ПериодОбучения_Key":"31793bbe-cc16-11e5-80c0-001e67e6bfa8",
                    "УчебнаяГруппа_Key":"G2",
                    "ДеньНедели":"Четверг",
                    "ВидНедели":"Четная",
                    "Подгруппа":1,
                    "НомерПары":2,
                    "ДатаРасписания":"2016-02-18T00:00:00",
                    "Дисциплина":"L7",
                    "Дисциплина_Type":"StandardODATA.Catalog_Дисциплины",
                    "Преподаватель_Key":"72b16469-7e0a-11e5-80bd-d4ae52b28930",
                    "Аудитория_Key":"AUD3",
                    "Территория_Key":"4197d8a9-cc2e-11e5-80c0-001e67e6bfa8"
                },
                {
                    "LineNumber":"3",
                    "Active":true,
                    "Организация_Key":"db823ef1-eb90-4fd1-b88d-207dd67b9e20",
                    "ПериодОбучения_Key":"31793bbe-cc16-11e5-80c0-001e67e6bfa8",
                    "УчебнаяГруппа_Key":"G2",
                    "ДеньНедели":"Четверг",
                    "ВидНедели":"Четная",
                    "Подгруппа":1,
                    "НомерПары":3,
                    "ДатаРасписания":"2016-02-18T00:00:00",
                    "Дисциплина":"L8",
                    "Дисциплина_Type":"StandardODATA.Catalog_Дисциплины",
                    "Преподаватель_Key":"72b16842-7e0a-11e5-80bd-d4ae52b28930",
                    "Аудитория_Key":"AUD2",
                    "Территория_Key":"4197d8a9-cc2e-11e5-80c0-001e67e6bfa8"
                },
                {
                    "LineNumber":"4",
                    "Active":true,
                    "Организация_Key":"db823ef1-eb90-4fd1-b88d-207dd67b9e20",
                    "ПериодОбучения_Key":"31793bbe-cc16-11e5-80c0-001e67e6bfa8",
                    "УчебнаяГруппа_Key":"G2",
                    "ДеньНедели":"Четверг",
                    "ВидНедели":"Четная",
                    "Подгруппа":1,
                    "НомерПары":4,
                    "ДатаРасписания":"2016-02-18T00:00:00",
                    "Дисциплина":"L1",
                    "Дисциплина_Type":"StandardODATA.Catalog_Дисциплины",
                    "Преподаватель_Key":"72b16728-7e0a-11e5-80bd-d4ae52b28930",
                    "Аудитория_Key":"AUD2",
                    "Территория_Key":"4197d8a9-cc2e-11e5-80c0-001e67e6bfa8"
                }
            ]
        },
        { /* Пятница */
            "Recorder_Key":"ba8f2834-d312-11e5-80c0-001e67e6bfa8",
            "RecordSet":[
                {
                    "LineNumber":"1",
                    "Active":true,
                    "Организация_Key":"db823ef1-eb90-4fd1-b88d-207dd67b9e20",
                    "ПериодОбучения_Key":"31793bbe-cc16-11e5-80c0-001e67e6bfa8",
                    "УчебнаяГруппа_Key":"G2",
                    "ДеньНедели":"Пятница",
                    "ВидНедели":"Четная",
                    "Подгруппа":1,
                    "НомерПары":1,
                    "ДатаРасписания":"2016-02-19T00:00:00",
                    "Дисциплина":"L2",
                    "Дисциплина_Type":"StandardODATA.Catalog_Дисциплины",
                    "Преподаватель_Key":"72b1687e-7e0a-11e5-80bd-d4ae52b28930",
                    "Аудитория_Key":"AUD1",
                    "Территория_Key":"4197d8a9-cc2e-11e5-80c0-001e67e6bfa8"
                },
                {
                    "LineNumber":"2",
                    "Active":true,
                    "Организация_Key":"db823ef1-eb90-4fd1-b88d-207dd67b9e20",
                    "ПериодОбучения_Key":"31793bbe-cc16-11e5-80c0-001e67e6bfa8",
                    "УчебнаяГруппа_Key":"G2",
                    "ДеньНедели":"Пятница",
                    "ВидНедели":"Четная",
                    "Подгруппа":1,
                    "НомерПары":2,
                    "ДатаРасписания":"2016-02-19T00:00:00",
                    "Дисциплина":"L2",
                    "Дисциплина_Type":"StandardODATA.Catalog_Дисциплины",
                    "Преподаватель_Key":"72b1675f-7e0a-11e5-80bd-d4ae52b28930",
                    "Аудитория_Key":"AUD1",
                    "Территория_Key":"4197d8a9-cc2e-11e5-80c0-001e67e6bfa8"
                }
            ]
        },
		
		{ /* Суббота */
            "Recorder_Key":"985228e4-cc35-11e5-80c0-001e67e6bfa8",
            "RecordSet":[
                {
                    "LineNumber":"1",
                    "Active":true,
                    "Организация_Key":"db823ef1-eb90-4fd1-b88d-207dd67b9e20",
                    "ПериодОбучения_Key":"31793bbe-cc16-11e5-80c0-001e67e6bfa8",
                    "УчебнаяГруппа_Key":"G3",
                    "ДеньНедели":"Суббота",
                    "ВидНедели":"Четная",
                    "Подгруппа":0,
                    "НомерПары":1,
                    "ДатаРасписания":"2016-02-06T00:00:00",
                    "Дисциплина":"L1",
                    "Дисциплина_Type":"StandardODATA.Catalog_Дисциплины",
                    "Преподаватель_Key":"00000000-0000-0000-0000-000000000000",
                    "Аудитория_Key":"AUD1",
                    "Территория_Key":"00000000-0000-0000-0000-000000000000"
                },
                {
                    "LineNumber":"2",
                    "Active":true,
                    "Организация_Key":"db823ef1-eb90-4fd1-b88d-207dd67b9e20",
                    "ПериодОбучения_Key":"31793bbe-cc16-11e5-80c0-001e67e6bfa8",
                    "УчебнаяГруппа_Key":"G3",
                    "ДеньНедели":"Суббота",
                    "ВидНедели":"Четная",
                    "Подгруппа":0,
                    "НомерПары":2,
                    "ДатаРасписания":"2016-02-06T00:00:00",
                    "Дисциплина":"L2",
                    "Дисциплина_Type":"StandardODATA.Catalog_Дисциплины",
                    "Преподаватель_Key":"72b1687e-7e0a-11e5-80bd-d4ae52b28930",
                    "Аудитория_Key":"AUD2",
                    "Территория_Key":"4197d8a9-cc2e-11e5-80c0-001e67e6bfa8"
                },
                {
                    "LineNumber":"3",
                    "Active":true,
                    "Организация_Key":"db823ef1-eb90-4fd1-b88d-207dd67b9e20",
                    "ПериодОбучения_Key":"31793bbe-cc16-11e5-80c0-001e67e6bfa8",
                    "УчебнаяГруппа_Key":"G3",
                    "ДеньНедели":"Суббота",
                    "ВидНедели":"Четная",
                    "Подгруппа":0,
                    "НомерПары":3,
                    "ДатаРасписания":"2016-02-06T00:00:00",
                    "Дисциплина":"L3",
                    "Дисциплина_Type":"StandardODATA.Catalog_Дисциплины",
                    "Преподаватель_Key":"72b1687e-7e0a-11e5-80bd-d4ae52b28930",
                    "Аудитория_Key":"AUD3",
                    "Территория_Key":"4197d8a9-cc2e-11e5-80c0-001e67e6bfa8"
                }
            ]
        },
        { /* Понедельник */
            "Recorder_Key":"97f48b48-d305-11e5-80c0-001e67e6bfa8",
            "RecordSet":[
                {
                    "LineNumber":"1",
                    "Active":true,
                    "Организация_Key":"db823ef1-eb90-4fd1-b88d-207dd67b9e20",
                    "ПериодОбучения_Key":"31793bbe-cc16-11e5-80c0-001e67e6bfa8",
                    "УчебнаяГруппа_Key":"G3",
                    "ДеньНедели":"Понедельник",
                    "ВидНедели":"Четная",
                    "Подгруппа":1,
                    "НомерПары":1,
                    "ДатаРасписания":"2016-02-15T00:00:00",
                    "Дисциплина":"L7",
                    "Дисциплина_Type":"StandardODATA.Catalog_Дисциплины",
                    "Преподаватель_Key":"72b16771-7e0a-11e5-80bd-d4ae52b28930",
                    "Аудитория_Key":"AUD3",
                    "Территория_Key":"4197d8a9-cc2e-11e5-80c0-001e67e6bfa8"
                },
                {
                    "LineNumber":"2",
                    "Active":true,
                    "Организация_Key":"db823ef1-eb90-4fd1-b88d-207dd67b9e20",
                    "ПериодОбучения_Key":"31793bbe-cc16-11e5-80c0-001e67e6bfa8",
                    "УчебнаяГруппа_Key":"G3",
                    "ДеньНедели":"Понедельник",
                    "ВидНедели":"Четная",
                    "Подгруппа":1,
                    "НомерПары":2,
                    "ДатаРасписания":"2016-02-15T00:00:00",
                    "Дисциплина":"L2",
                    "Дисциплина_Type":"StandardODATA.Catalog_Дисциплины",
                    "Преподаватель_Key":"72b16503-7e0a-11e5-80bd-d4ae52b28930",
                    "Аудитория_Key":"AUD3",
                    "Территория_Key":"4197d8a9-cc2e-11e5-80c0-001e67e6bfa8"
                },
				{
                    "LineNumber":"3",
                    "Active":true,
                    "Организация_Key":"db823ef1-eb90-4fd1-b88d-207dd67b9e20",
                    "ПериодОбучения_Key":"31793bbe-cc16-11e5-80c0-001e67e6bfa8",
                    "УчебнаяГруппа_Key":"G3",
                    "ДеньНедели":"Понедельник",
                    "ВидНедели":"Четная",
                    "Подгруппа":1,
                    "НомерПары":3,
                    "ДатаРасписания":"2016-02-15T00:00:00",
                    "Дисциплина":"L2",
                    "Дисциплина_Type":"StandardODATA.Catalog_Дисциплины",
                    "Преподаватель_Key":"72b16503-7e0a-11e5-80bd-d4ae52b28930",
                    "Аудитория_Key":"AUD3",
                    "Территория_Key":"4197d8a9-cc2e-11e5-80c0-001e67e6bfa8"
                }
            ]
        },
        { /* Вторник */
            "Recorder_Key":"7d71f53b-d311-11e5-80c0-001e67e6bfa8",
            "RecordSet":[
                {
                    "LineNumber":"1",
                    "Active":true,
                    "Организация_Key":"db823ef1-eb90-4fd1-b88d-207dd67b9e20",
                    "ПериодОбучения_Key":"31793bbe-cc16-11e5-80c0-001e67e6bfa8",
                    "УчебнаяГруппа_Key":"G3",
                    "ДеньНедели":"Вторник",
                    "ВидНедели":"Четная",
                    "Подгруппа":1,
                    "НомерПары":1,
                    "ДатаРасписания":"2016-02-16T00:00:00",
                    "Дисциплина":"L1",
                    "Дисциплина_Type":"StandardODATA.Catalog_Дисциплины",
                    "Преподаватель_Key":"72b16287-7e0a-11e5-80bd-d4ae52b28930",
                    "Аудитория_Key":"AUD2",
                    "Территория_Key":"4197d8a9-cc2e-11e5-80c0-001e67e6bfa8"
                },
                {
                    "LineNumber":"2",
                    "Active":true,
                    "Организация_Key":"db823ef1-eb90-4fd1-b88d-207dd67b9e20",
                    "ПериодОбучения_Key":"31793bbe-cc16-11e5-80c0-001e67e6bfa8",
                    "УчебнаяГруппа_Key":"G3",
                    "ДеньНедели":"Вторник",
                    "ВидНедели":"Четная",
                    "Подгруппа":0,
                    "НомерПары":2,
                    "ДатаРасписания":"2016-02-16T00:00:00",
                    "Дисциплина":"L2",
                    "Дисциплина_Type":"StandardODATA.Catalog_Дисциплины",
                    "Преподаватель_Key":"72b1658f-7e0a-11e5-80bd-d4ae52b28930",
                    "Аудитория_Key":"AUD3",
                    "Территория_Key":"4197d8a9-cc2e-11e5-80c0-001e67e6bfa8"
                },
                {
                    "LineNumber":"3",
                    "Active":true,
                    "Организация_Key":"db823ef1-eb90-4fd1-b88d-207dd67b9e20",
                    "ПериодОбучения_Key":"31793bbe-cc16-11e5-80c0-001e67e6bfa8",
                    "УчебнаяГруппа_Key":"G3",
                    "ДеньНедели":"Вторник",
                    "ВидНедели":"Четная",
                    "Подгруппа":0,
                    "НомерПары":3,
                    "ДатаРасписания":"2016-02-16T00:00:00",
                    "Дисциплина":"L3",
                    "Дисциплина_Type":"StandardODATA.Catalog_Дисциплины",
                    "Преподаватель_Key":"72b16503-7e0a-11e5-80bd-d4ae52b28930",
                    "Аудитория_Key":"AUD2",
                    "Территория_Key":"4197d8a9-cc2e-11e5-80c0-001e67e6bfa8"
                },
                {
                    "LineNumber":"4",
                    "Active":true,
                    "Организация_Key":"db823ef1-eb90-4fd1-b88d-207dd67b9e20",
                    "ПериодОбучения_Key":"31793bbe-cc16-11e5-80c0-001e67e6bfa8",
                    "УчебнаяГруппа_Key":"G3",
                    "ДеньНедели":"Вторник",
                    "ВидНедели":"Четная",
                    "Подгруппа":1,
                    "НомерПары":4,
                    "ДатаРасписания":"2016-02-16T00:00:00",
                    "Дисциплина":"L4",
                    "Дисциплина_Type":"StandardODATA.Catalog_Дисциплины",
                    "Преподаватель_Key":"72b1658f-7e0a-11e5-80bd-d4ae52b28930",
                    "Аудитория_Key":"AUD1",
                    "Территория_Key":"4197d8a9-cc2e-11e5-80c0-001e67e6bfa8"
                }
            ]
        },
        { /* Среда */
            "Recorder_Key":"fd938a04-d311-11e5-80c0-001e67e6bfa8",
            "RecordSet":[
                {
                    "LineNumber":"1",
                    "Active":true,
                    "Организация_Key":"db823ef1-eb90-4fd1-b88d-207dd67b9e20",
                    "ПериодОбучения_Key":"31793bbe-cc16-11e5-80c0-001e67e6bfa8",
                    "УчебнаяГруппа_Key":"G3",
                    "ДеньНедели":"Среда",
                    "ВидНедели":"Четная",
                    "Подгруппа":1,
                    "НомерПары":1,
                    "ДатаРасписания":"2016-02-17T00:00:00",
                    "Дисциплина":"L1",
                    "Дисциплина_Type":"StandardODATA.Catalog_Дисциплины",
                    "Преподаватель_Key":"c459514e-ed92-11e4-80bc-d4ae52b28930",
                    "Аудитория_Key":"AUD3",
                    "Территория_Key":"4197d8a9-cc2e-11e5-80c0-001e67e6bfa8"
                },
                {
                    "LineNumber":"2",
                    "Active":true,
                    "Организация_Key":"db823ef1-eb90-4fd1-b88d-207dd67b9e20",
                    "ПериодОбучения_Key":"31793bbe-cc16-11e5-80c0-001e67e6bfa8",
                    "УчебнаяГруппа_Key":"G3",
                    "ДеньНедели":"Среда",
                    "ВидНедели":"Четная",
                    "Подгруппа":1,
                    "НомерПары":2,
                    "ДатаРасписания":"2016-02-17T00:00:00",
                    "Дисциплина":"L2",
                    "Дисциплина_Type":"StandardODATA.Catalog_Дисциплины",
                    "Преподаватель_Key":"72b16863-7e0a-11e5-80bd-d4ae52b28930",
                    "Аудитория_Key":"AUD1",
                    "Территория_Key":"4197d8a9-cc2e-11e5-80c0-001e67e6bfa8"
                },
                {
                    "LineNumber":"3",
                    "Active":true,
                    "Организация_Key":"db823ef1-eb90-4fd1-b88d-207dd67b9e20",
                    "ПериодОбучения_Key":"31793bbe-cc16-11e5-80c0-001e67e6bfa8",
                    "УчебнаяГруппа_Key":"G3",
                    "ДеньНедели":"Среда",
                    "ВидНедели":"Четная",
                    "Подгруппа":1,
                    "НомерПары":3,
                    "ДатаРасписания":"2016-02-17T00:00:00",
                    "Дисциплина":"L3",
                    "Дисциплина_Type":"StandardODATA.Catalog_Дисциплины",
                    "Преподаватель_Key":"72b16308-7e0a-11e5-80bd-d4ae52b28930",
                    "Аудитория_Key":"AUD2",
                    "Территория_Key":"4197d8a9-cc2e-11e5-80c0-001e67e6bfa8"
                },
                {
                    "LineNumber":"4",
                    "Active":true,
                    "Организация_Key":"db823ef1-eb90-4fd1-b88d-207dd67b9e20",
                    "ПериодОбучения_Key":"31793bbe-cc16-11e5-80c0-001e67e6bfa8",
                    "УчебнаяГруппа_Key":"G3",
                    "ДеньНедели":"Среда",
                    "ВидНедели":"Четная",
                    "Подгруппа":1,
                    "НомерПары":4,
                    "ДатаРасписания":"2016-02-17T00:00:00",
                    "Дисциплина":"L4",
                    "Дисциплина_Type":"StandardODATA.Catalog_Дисциплины",
                    "Преподаватель_Key":"72b162fe-7e0a-11e5-80bd-d4ae52b28930",
                    "Аудитория_Key":"AUD3",
                    "Территория_Key":"4197d8a9-cc2e-11e5-80c0-001e67e6bfa8"
                }
            ]
        },
        { /* Четверг */
            "Recorder_Key":"472d9b3e-d312-11e5-80c0-001e67e6bfa8",
            "RecordSet":[
                {
                    "LineNumber":"1",
                    "Active":true,
                    "Организация_Key":"db823ef1-eb90-4fd1-b88d-207dd67b9e20",
                    "ПериодОбучения_Key":"31793bbe-cc16-11e5-80c0-001e67e6bfa8",
                    "УчебнаяГруппа_Key":"G3",
                    "ДеньНедели":"Четверг",
                    "ВидНедели":"Четная",
                    "Подгруппа":1,
                    "НомерПары":1,
                    "ДатаРасписания":"2016-02-18T00:00:00",
                    "Дисциплина":"L4",
                    "Дисциплина_Type":"StandardODATA.Catalog_Дисциплины",
                    "Преподаватель_Key":"72b161f3-7e0a-11e5-80bd-d4ae52b28930",
                    "Аудитория_Key":"AUD3",
                    "Территория_Key":"4197d8a9-cc2e-11e5-80c0-001e67e6bfa8"
                },
                {
                    "LineNumber":"2",
                    "Active":true,
                    "Организация_Key":"db823ef1-eb90-4fd1-b88d-207dd67b9e20",
                    "ПериодОбучения_Key":"31793bbe-cc16-11e5-80c0-001e67e6bfa8",
                    "УчебнаяГруппа_Key":"G3",
                    "ДеньНедели":"Четверг",
                    "ВидНедели":"Четная",
                    "Подгруппа":1,
                    "НомерПары":2,
                    "ДатаРасписания":"2016-02-18T00:00:00",
                    "Дисциплина":"L4",
                    "Дисциплина_Type":"StandardODATA.Catalog_Дисциплины",
                    "Преподаватель_Key":"72b16469-7e0a-11e5-80bd-d4ae52b28930",
                    "Аудитория_Key":"AUD3",
                    "Территория_Key":"4197d8a9-cc2e-11e5-80c0-001e67e6bfa8"
                }
            ]
        },
        { /* Пятница */
            "Recorder_Key":"ba8f2834-d312-11e5-80c0-001e67e6bfa8",
            "RecordSet":[
                {
                    "LineNumber":"1",
                    "Active":true,
                    "Организация_Key":"db823ef1-eb90-4fd1-b88d-207dd67b9e20",
                    "ПериодОбучения_Key":"31793bbe-cc16-11e5-80c0-001e67e6bfa8",
                    "УчебнаяГруппа_Key":"G3",
                    "ДеньНедели":"Пятница",
                    "ВидНедели":"Четная",
                    "Подгруппа":1,
                    "НомерПары":1,
                    "ДатаРасписания":"2016-02-19T00:00:00",
                    "Дисциплина":"L8",
                    "Дисциплина_Type":"StandardODATA.Catalog_Дисциплины",
                    "Преподаватель_Key":"72b1687e-7e0a-11e5-80bd-d4ae52b28930",
                    "Аудитория_Key":"AUD2",
                    "Территория_Key":"4197d8a9-cc2e-11e5-80c0-001e67e6bfa8"
                },
                {
                    "LineNumber":"2",
                    "Active":true,
                    "Организация_Key":"db823ef1-eb90-4fd1-b88d-207dd67b9e20",
                    "ПериодОбучения_Key":"31793bbe-cc16-11e5-80c0-001e67e6bfa8",
                    "УчебнаяГруппа_Key":"G3",
                    "ДеньНедели":"Пятница",
                    "ВидНедели":"Четная",
                    "Подгруппа":1,
                    "НомерПары":2,
                    "ДатаРасписания":"2016-02-19T00:00:00",
                    "Дисциплина":"L8",
                    "Дисциплина_Type":"StandardODATA.Catalog_Дисциплины",
                    "Преподаватель_Key":"72b1675f-7e0a-11e5-80bd-d4ae52b28930",
                    "Аудитория_Key":"AUD2",
                    "Территория_Key":"4197d8a9-cc2e-11e5-80c0-001e67e6bfa8"
                },
                {
                    "LineNumber":"3",
                    "Active":true,
                    "Организация_Key":"db823ef1-eb90-4fd1-b88d-207dd67b9e20",
                    "ПериодОбучения_Key":"31793bbe-cc16-11e5-80c0-001e67e6bfa8",
                    "УчебнаяГруппа_Key":"G3",
                    "ДеньНедели":"Пятница",
                    "ВидНедели":"Четная",
                    "Подгруппа":1,
                    "НомерПары":3,
                    "ДатаРасписания":"2016-02-19T00:00:00",
                    "Дисциплина":"L8",
                    "Дисциплина_Type":"StandardODATA.Catalog_Дисциплины",
                    "Преподаватель_Key":"72b1652f-7e0a-11e5-80bd-d4ae52b28930",
                    "Аудитория_Key":"AUD2",
                    "Территория_Key":"4197d8a9-cc2e-11e5-80c0-001e67e6bfa8"
                }
            ]
        },
		
		{ /* Суббота */
            "Recorder_Key":"985228e4-cc35-11e5-80c0-001e67e6bfa8",
            "RecordSet":[
                {
                    "LineNumber":"1",
                    "Active":true,
                    "Организация_Key":"db823ef1-eb90-4fd1-b88d-207dd67b9e20",
                    "ПериодОбучения_Key":"31793bbe-cc16-11e5-80c0-001e67e6bfa8",
                    "УчебнаяГруппа_Key":"G4",
                    "ДеньНедели":"Суббота",
                    "ВидНедели":"Четная",
                    "Подгруппа":0,
                    "НомерПары":1,
                    "ДатаРасписания":"2016-02-06T00:00:00",
                    "Дисциплина":"L8",
                    "Дисциплина_Type":"StandardODATA.Catalog_Дисциплины",
                    "Преподаватель_Key":"00000000-0000-0000-0000-000000000000",
                    "Аудитория_Key":"AUD1",
                    "Территория_Key":"00000000-0000-0000-0000-000000000000"
                }
            ]
        },
        { /* Понедельник */
            "Recorder_Key":"97f48b48-d305-11e5-80c0-001e67e6bfa8",
            "RecordSet":[
                {
                    "LineNumber":"1",
                    "Active":true,
                    "Организация_Key":"db823ef1-eb90-4fd1-b88d-207dd67b9e20",
                    "ПериодОбучения_Key":"31793bbe-cc16-11e5-80c0-001e67e6bfa8",
                    "УчебнаяГруппа_Key":"G4",
                    "ДеньНедели":"Понедельник",
                    "ВидНедели":"Четная",
                    "Подгруппа":1,
                    "НомерПары":1,
                    "ДатаРасписания":"2016-02-15T00:00:00",
                    "Дисциплина":"L1",
                    "Дисциплина_Type":"StandardODATA.Catalog_Дисциплины",
                    "Преподаватель_Key":"72b16771-7e0a-11e5-80bd-d4ae52b28930",
                    "Аудитория_Key":"AUD3",
                    "Территория_Key":"4197d8a9-cc2e-11e5-80c0-001e67e6bfa8"
                },
                {
                    "LineNumber":"2",
                    "Active":true,
                    "Организация_Key":"db823ef1-eb90-4fd1-b88d-207dd67b9e20",
                    "ПериодОбучения_Key":"31793bbe-cc16-11e5-80c0-001e67e6bfa8",
                    "УчебнаяГруппа_Key":"G4",
                    "ДеньНедели":"Понедельник",
                    "ВидНедели":"Четная",
                    "Подгруппа":1,
                    "НомерПары":2,
                    "ДатаРасписания":"2016-02-15T00:00:00",
                    "Дисциплина":"L5",
                    "Дисциплина_Type":"StandardODATA.Catalog_Дисциплины",
                    "Преподаватель_Key":"72b16503-7e0a-11e5-80bd-d4ae52b28930",
                    "Аудитория_Key":"AUD3",
                    "Территория_Key":"4197d8a9-cc2e-11e5-80c0-001e67e6bfa8"
                }
            ]
        },
        { /* Вторник */
            "Recorder_Key":"7d71f53b-d311-11e5-80c0-001e67e6bfa8",
            "RecordSet":[
                {
                    "LineNumber":"1",
                    "Active":true,
                    "Организация_Key":"db823ef1-eb90-4fd1-b88d-207dd67b9e20",
                    "ПериодОбучения_Key":"31793bbe-cc16-11e5-80c0-001e67e6bfa8",
                    "УчебнаяГруппа_Key":"G4",
                    "ДеньНедели":"Вторник",
                    "ВидНедели":"Четная",
                    "Подгруппа":1,
                    "НомерПары":1,
                    "ДатаРасписания":"2016-02-16T00:00:00",
                    "Дисциплина":"L6",
                    "Дисциплина_Type":"StandardODATA.Catalog_Дисциплины",
                    "Преподаватель_Key":"72b16287-7e0a-11e5-80bd-d4ae52b28930",
                    "Аудитория_Key":"AUD2",
                    "Территория_Key":"4197d8a9-cc2e-11e5-80c0-001e67e6bfa8"
                },
                {
                    "LineNumber":"2",
                    "Active":true,
                    "Организация_Key":"db823ef1-eb90-4fd1-b88d-207dd67b9e20",
                    "ПериодОбучения_Key":"31793bbe-cc16-11e5-80c0-001e67e6bfa8",
                    "УчебнаяГруппа_Key":"G4",
                    "ДеньНедели":"Вторник",
                    "ВидНедели":"Четная",
                    "Подгруппа":0,
                    "НомерПары":2,
                    "ДатаРасписания":"2016-02-16T00:00:00",
                    "Дисциплина":"L3",
                    "Дисциплина_Type":"StandardODATA.Catalog_Дисциплины",
                    "Преподаватель_Key":"72b1658f-7e0a-11e5-80bd-d4ae52b28930",
                    "Аудитория_Key":"AUD1",
                    "Территория_Key":"4197d8a9-cc2e-11e5-80c0-001e67e6bfa8"
                }
            ]
        },
        { /* Среда */
            "Recorder_Key":"fd938a04-d311-11e5-80c0-001e67e6bfa8",
            "RecordSet":[
                {
                    "LineNumber":"1",
                    "Active":true,
                    "Организация_Key":"db823ef1-eb90-4fd1-b88d-207dd67b9e20",
                    "ПериодОбучения_Key":"31793bbe-cc16-11e5-80c0-001e67e6bfa8",
                    "УчебнаяГруппа_Key":"G4",
                    "ДеньНедели":"Среда",
                    "ВидНедели":"Четная",
                    "Подгруппа":1,
                    "НомерПары":1,
                    "ДатаРасписания":"2016-02-17T00:00:00",
                    "Дисциплина":"L3",
                    "Дисциплина_Type":"StandardODATA.Catalog_Дисциплины",
                    "Преподаватель_Key":"c459514e-ed92-11e4-80bc-d4ae52b28930",
                    "Аудитория_Key":"AUD3",
                    "Территория_Key":"4197d8a9-cc2e-11e5-80c0-001e67e6bfa8"
                },
                {
                    "LineNumber":"2",
                    "Active":true,
                    "Организация_Key":"db823ef1-eb90-4fd1-b88d-207dd67b9e20",
                    "ПериодОбучения_Key":"31793bbe-cc16-11e5-80c0-001e67e6bfa8",
                    "УчебнаяГруппа_Key":"G4",
                    "ДеньНедели":"Среда",
                    "ВидНедели":"Четная",
                    "Подгруппа":1,
                    "НомерПары":2,
                    "ДатаРасписания":"2016-02-17T00:00:00",
                    "Дисциплина":"L7",
                    "Дисциплина_Type":"StandardODATA.Catalog_Дисциплины",
                    "Преподаватель_Key":"72b16863-7e0a-11e5-80bd-d4ae52b28930",
                    "Аудитория_Key":"AUD1",
                    "Территория_Key":"4197d8a9-cc2e-11e5-80c0-001e67e6bfa8"
                },
                {
                    "LineNumber":"3",
                    "Active":true,
                    "Организация_Key":"db823ef1-eb90-4fd1-b88d-207dd67b9e20",
                    "ПериодОбучения_Key":"31793bbe-cc16-11e5-80c0-001e67e6bfa8",
                    "УчебнаяГруппа_Key":"G4",
                    "ДеньНедели":"Среда",
                    "ВидНедели":"Четная",
                    "Подгруппа":1,
                    "НомерПары":3,
                    "ДатаРасписания":"2016-02-17T00:00:00",
                    "Дисциплина":"L5",
                    "Дисциплина_Type":"StandardODATA.Catalog_Дисциплины",
                    "Преподаватель_Key":"72b16308-7e0a-11e5-80bd-d4ae52b28930",
                    "Аудитория_Key":"AUD2",
                    "Территория_Key":"4197d8a9-cc2e-11e5-80c0-001e67e6bfa8"
                },
                {
                    "LineNumber":"4",
                    "Active":true,
                    "Организация_Key":"db823ef1-eb90-4fd1-b88d-207dd67b9e20",
                    "ПериодОбучения_Key":"31793bbe-cc16-11e5-80c0-001e67e6bfa8",
                    "УчебнаяГруппа_Key":"G4",
                    "ДеньНедели":"Среда",
                    "ВидНедели":"Четная",
                    "Подгруппа":1,
                    "НомерПары":4,
                    "ДатаРасписания":"2016-02-17T00:00:00",
                    "Дисциплина":"L7",
                    "Дисциплина_Type":"StandardODATA.Catalog_Дисциплины",
                    "Преподаватель_Key":"72b162fe-7e0a-11e5-80bd-d4ae52b28930",
                    "Аудитория_Key":"AUD2",
                    "Территория_Key":"4197d8a9-cc2e-11e5-80c0-001e67e6bfa8"
                }
            ]
        },
        { /* Четверг */
            "Recorder_Key":"472d9b3e-d312-11e5-80c0-001e67e6bfa8",
            "RecordSet":[
                {
                    "LineNumber":"1",
                    "Active":true,
                    "Организация_Key":"db823ef1-eb90-4fd1-b88d-207dd67b9e20",
                    "ПериодОбучения_Key":"31793bbe-cc16-11e5-80c0-001e67e6bfa8",
                    "УчебнаяГруппа_Key":"G4",
                    "ДеньНедели":"Четверг",
                    "ВидНедели":"Четная",
                    "Подгруппа":1,
                    "НомерПары":1,
                    "ДатаРасписания":"2016-02-18T00:00:00",
                    "Дисциплина":"L6",
                    "Дисциплина_Type":"StandardODATA.Catalog_Дисциплины",
                    "Преподаватель_Key":"72b161f3-7e0a-11e5-80bd-d4ae52b28930",
                    "Аудитория_Key":"AUD1",
                    "Территория_Key":"4197d8a9-cc2e-11e5-80c0-001e67e6bfa8"
                },
                {
                    "LineNumber":"2",
                    "Active":true,
                    "Организация_Key":"db823ef1-eb90-4fd1-b88d-207dd67b9e20",
                    "ПериодОбучения_Key":"31793bbe-cc16-11e5-80c0-001e67e6bfa8",
                    "УчебнаяГруппа_Key":"G4",
                    "ДеньНедели":"Четверг",
                    "ВидНедели":"Четная",
                    "Подгруппа":1,
                    "НомерПары":2,
                    "ДатаРасписания":"2016-02-18T00:00:00",
                    "Дисциплина":"L8",
                    "Дисциплина_Type":"StandardODATA.Catalog_Дисциплины",
                    "Преподаватель_Key":"72b16469-7e0a-11e5-80bd-d4ae52b28930",
                    "Аудитория_Key":"AUD3",
                    "Территория_Key":"4197d8a9-cc2e-11e5-80c0-001e67e6bfa8"
                },
                {
                    "LineNumber":"3",
                    "Active":true,
                    "Организация_Key":"db823ef1-eb90-4fd1-b88d-207dd67b9e20",
                    "ПериодОбучения_Key":"31793bbe-cc16-11e5-80c0-001e67e6bfa8",
                    "УчебнаяГруппа_Key":"G4",
                    "ДеньНедели":"Четверг",
                    "ВидНедели":"Четная",
                    "Подгруппа":1,
                    "НомерПары":3,
                    "ДатаРасписания":"2016-02-18T00:00:00",
                    "Дисциплина":"L7",
                    "Дисциплина_Type":"StandardODATA.Catalog_Дисциплины",
                    "Преподаватель_Key":"72b16842-7e0a-11e5-80bd-d4ae52b28930",
                    "Аудитория_Key":"AUD2",
                    "Территория_Key":"4197d8a9-cc2e-11e5-80c0-001e67e6bfa8"
                },
                {
                    "LineNumber":"4",
                    "Active":true,
                    "Организация_Key":"db823ef1-eb90-4fd1-b88d-207dd67b9e20",
                    "ПериодОбучения_Key":"31793bbe-cc16-11e5-80c0-001e67e6bfa8",
                    "УчебнаяГруппа_Key":"G4",
                    "ДеньНедели":"Четверг",
                    "ВидНедели":"Четная",
                    "Подгруппа":1,
                    "НомерПары":4,
                    "ДатаРасписания":"2016-02-18T00:00:00",
                    "Дисциплина":"L1",
                    "Дисциплина_Type":"StandardODATA.Catalog_Дисциплины",
                    "Преподаватель_Key":"72b16728-7e0a-11e5-80bd-d4ae52b28930",
                    "Аудитория_Key":"AUD2",
                    "Территория_Key":"4197d8a9-cc2e-11e5-80c0-001e67e6bfa8"
                }
            ]
        },
        { /* Пятница */
            "Recorder_Key":"ba8f2834-d312-11e5-80c0-001e67e6bfa8",
            "RecordSet":[
                {
                    "LineNumber":"1",
                    "Active":true,
                    "Организация_Key":"db823ef1-eb90-4fd1-b88d-207dd67b9e20",
                    "ПериодОбучения_Key":"31793bbe-cc16-11e5-80c0-001e67e6bfa8",
                    "УчебнаяГруппа_Key":"G4",
                    "ДеньНедели":"Пятница",
                    "ВидНедели":"Четная",
                    "Подгруппа":1,
                    "НомерПары":1,
                    "ДатаРасписания":"2016-02-19T00:00:00",
                    "Дисциплина":"L3",
                    "Дисциплина_Type":"StandardODATA.Catalog_Дисциплины",
                    "Преподаватель_Key":"72b1687e-7e0a-11e5-80bd-d4ae52b28930",
                    "Аудитория_Key":"AUD2",
                    "Территория_Key":"4197d8a9-cc2e-11e5-80c0-001e67e6bfa8"
                },
                {
                    "LineNumber":"2",
                    "Active":true,
                    "Организация_Key":"db823ef1-eb90-4fd1-b88d-207dd67b9e20",
                    "ПериодОбучения_Key":"31793bbe-cc16-11e5-80c0-001e67e6bfa8",
                    "УчебнаяГруппа_Key":"G4",
                    "ДеньНедели":"Пятница",
                    "ВидНедели":"Четная",
                    "Подгруппа":1,
                    "НомерПары":2,
                    "ДатаРасписания":"2016-02-19T00:00:00",
                    "Дисциплина":"L3",
                    "Дисциплина_Type":"StandardODATA.Catalog_Дисциплины",
                    "Преподаватель_Key":"72b1675f-7e0a-11e5-80bd-d4ae52b28930",
                    "Аудитория_Key":"AUD2",
                    "Территория_Key":"4197d8a9-cc2e-11e5-80c0-001e67e6bfa8"
                },
                {
                    "LineNumber":"3",
                    "Active":true,
                    "Организация_Key":"db823ef1-eb90-4fd1-b88d-207dd67b9e20",
                    "ПериодОбучения_Key":"31793bbe-cc16-11e5-80c0-001e67e6bfa8",
                    "УчебнаяГруппа_Key":"G4",
                    "ДеньНедели":"Пятница",
                    "ВидНедели":"Четная",
                    "Подгруппа":1,
                    "НомерПары":3,
                    "ДатаРасписания":"2016-02-19T00:00:00",
                    "Дисциплина":"L3",
                    "Дисциплина_Type":"StandardODATA.Catalog_Дисциплины",
                    "Преподаватель_Key":"72b1652f-7e0a-11e5-80bd-d4ae52b28930",
                    "Аудитория_Key":"AUD1",
                    "Территория_Key":"4197d8a9-cc2e-11e5-80c0-001e67e6bfa8"
                }
            ]
        },
		
		{ /* Суббота */
            "Recorder_Key":"985228e4-cc35-11e5-80c0-001e67e6bfa8",
            "RecordSet":[
                {
                    "LineNumber":"1",
                    "Active":true,
                    "Организация_Key":"db823ef1-eb90-4fd1-b88d-207dd67b9e20",
                    "ПериодОбучения_Key":"31793bbe-cc16-11e5-80c0-001e67e6bfa8",
                    "УчебнаяГруппа_Key":"G5",
                    "ДеньНедели":"Суббота",
                    "ВидНедели":"Четная",
                    "Подгруппа":0,
                    "НомерПары":1,
                    "ДатаРасписания":"2016-02-06T00:00:00",
                    "Дисциплина":"L3",
                    "Дисциплина_Type":"StandardODATA.Catalog_Дисциплины",
                    "Преподаватель_Key":"00000000-0000-0000-0000-000000000000",
                    "Аудитория_Key":"AUD1",
                    "Территория_Key":"00000000-0000-0000-0000-000000000000"
                }
            ]
        },
        { /* Понедельник */
            "Recorder_Key":"97f48b48-d305-11e5-80c0-001e67e6bfa8",
            "RecordSet":[
                {
                    "LineNumber":"1",
                    "Active":true,
                    "Организация_Key":"db823ef1-eb90-4fd1-b88d-207dd67b9e20",
                    "ПериодОбучения_Key":"31793bbe-cc16-11e5-80c0-001e67e6bfa8",
                    "УчебнаяГруппа_Key":"G5",
                    "ДеньНедели":"Понедельник",
                    "ВидНедели":"Четная",
                    "Подгруппа":1,
                    "НомерПары":1,
                    "ДатаРасписания":"2016-02-15T00:00:00",
                    "Дисциплина":"L2",
                    "Дисциплина_Type":"StandardODATA.Catalog_Дисциплины",
                    "Преподаватель_Key":"72b16771-7e0a-11e5-80bd-d4ae52b28930",
                    "Аудитория_Key":"AUD3",
                    "Территория_Key":"4197d8a9-cc2e-11e5-80c0-001e67e6bfa8"
                },
                {
                    "LineNumber":"2",
                    "Active":true,
                    "Организация_Key":"db823ef1-eb90-4fd1-b88d-207dd67b9e20",
                    "ПериодОбучения_Key":"31793bbe-cc16-11e5-80c0-001e67e6bfa8",
                    "УчебнаяГруппа_Key":"G5",
                    "ДеньНедели":"Понедельник",
                    "ВидНедели":"Четная",
                    "Подгруппа":1,
                    "НомерПары":2,
                    "ДатаРасписания":"2016-02-15T00:00:00",
                    "Дисциплина":"L6",
                    "Дисциплина_Type":"StandardODATA.Catalog_Дисциплины",
                    "Преподаватель_Key":"72b16503-7e0a-11e5-80bd-d4ae52b28930",
                    "Аудитория_Key":"AUD3",
                    "Территория_Key":"4197d8a9-cc2e-11e5-80c0-001e67e6bfa8"
                }
            ]
        },
        { /* Вторник */
            "Recorder_Key":"7d71f53b-d311-11e5-80c0-001e67e6bfa8",
            "RecordSet":[
                {
                    "LineNumber":"1",
                    "Active":true,
                    "Организация_Key":"db823ef1-eb90-4fd1-b88d-207dd67b9e20",
                    "ПериодОбучения_Key":"31793bbe-cc16-11e5-80c0-001e67e6bfa8",
                    "УчебнаяГруппа_Key":"G5",
                    "ДеньНедели":"Вторник",
                    "ВидНедели":"Четная",
                    "Подгруппа":1,
                    "НомерПары":1,
                    "ДатаРасписания":"2016-02-16T00:00:00",
                    "Дисциплина":"L1",
                    "Дисциплина_Type":"StandardODATA.Catalog_Дисциплины",
                    "Преподаватель_Key":"72b16287-7e0a-11e5-80bd-d4ae52b28930",
                    "Аудитория_Key":"AUD2",
                    "Территория_Key":"4197d8a9-cc2e-11e5-80c0-001e67e6bfa8"
                },
                {
                    "LineNumber":"2",
                    "Active":true,
                    "Организация_Key":"db823ef1-eb90-4fd1-b88d-207dd67b9e20",
                    "ПериодОбучения_Key":"31793bbe-cc16-11e5-80c0-001e67e6bfa8",
                    "УчебнаяГруппа_Key":"G5",
                    "ДеньНедели":"Вторник",
                    "ВидНедели":"Четная",
                    "Подгруппа":0,
                    "НомерПары":2,
                    "ДатаРасписания":"2016-02-16T00:00:00",
                    "Дисциплина":"L3",
                    "Дисциплина_Type":"StandardODATA.Catalog_Дисциплины",
                    "Преподаватель_Key":"72b1658f-7e0a-11e5-80bd-d4ae52b28930",
                    "Аудитория_Key":"AUD3",
                    "Территория_Key":"4197d8a9-cc2e-11e5-80c0-001e67e6bfa8"
                },
                {
                    "LineNumber":"3",
                    "Active":true,
                    "Организация_Key":"db823ef1-eb90-4fd1-b88d-207dd67b9e20",
                    "ПериодОбучения_Key":"31793bbe-cc16-11e5-80c0-001e67e6bfa8",
                    "УчебнаяГруппа_Key":"G5",
                    "ДеньНедели":"Вторник",
                    "ВидНедели":"Четная",
                    "Подгруппа":0,
                    "НомерПары":3,
                    "ДатаРасписания":"2016-02-16T00:00:00",
                    "Дисциплина":"L2",
                    "Дисциплина_Type":"StandardODATA.Catalog_Дисциплины",
                    "Преподаватель_Key":"72b16503-7e0a-11e5-80bd-d4ae52b28930",
                    "Аудитория_Key":"AUD1",
                    "Территория_Key":"4197d8a9-cc2e-11e5-80c0-001e67e6bfa8"
                },
                {
                    "LineNumber":"4",
                    "Active":true,
                    "Организация_Key":"db823ef1-eb90-4fd1-b88d-207dd67b9e20",
                    "ПериодОбучения_Key":"31793bbe-cc16-11e5-80c0-001e67e6bfa8",
                    "УчебнаяГруппа_Key":"G5",
                    "ДеньНедели":"Вторник",
                    "ВидНедели":"Четная",
                    "Подгруппа":1,
                    "НомерПары":4,
                    "ДатаРасписания":"2016-02-16T00:00:00",
                    "Дисциплина":"L5",
                    "Дисциплина_Type":"StandardODATA.Catalog_Дисциплины",
                    "Преподаватель_Key":"72b1658f-7e0a-11e5-80bd-d4ae52b28930",
                    "Аудитория_Key":"AUD2",
                    "Территория_Key":"4197d8a9-cc2e-11e5-80c0-001e67e6bfa8"
                }
            ]
        },
        { /* Среда */
            "Recorder_Key":"fd938a04-d311-11e5-80c0-001e67e6bfa8",
            "RecordSet":[
                {
                    "LineNumber":"1",
                    "Active":true,
                    "Организация_Key":"db823ef1-eb90-4fd1-b88d-207dd67b9e20",
                    "ПериодОбучения_Key":"31793bbe-cc16-11e5-80c0-001e67e6bfa8",
                    "УчебнаяГруппа_Key":"G5",
                    "ДеньНедели":"Среда",
                    "ВидНедели":"Четная",
                    "Подгруппа":1,
                    "НомерПары":1,
                    "ДатаРасписания":"2016-02-17T00:00:00",
                    "Дисциплина":"L6",
                    "Дисциплина_Type":"StandardODATA.Catalog_Дисциплины",
                    "Преподаватель_Key":"c459514e-ed92-11e4-80bc-d4ae52b28930",
                    "Аудитория_Key":"AUD3",
                    "Территория_Key":"4197d8a9-cc2e-11e5-80c0-001e67e6bfa8"
                },
                {
                    "LineNumber":"2",
                    "Active":true,
                    "Организация_Key":"db823ef1-eb90-4fd1-b88d-207dd67b9e20",
                    "ПериодОбучения_Key":"31793bbe-cc16-11e5-80c0-001e67e6bfa8",
                    "УчебнаяГруппа_Key":"G5",
                    "ДеньНедели":"Среда",
                    "ВидНедели":"Четная",
                    "Подгруппа":1,
                    "НомерПары":2,
                    "ДатаРасписания":"2016-02-17T00:00:00",
                    "Дисциплина":"L7",
                    "Дисциплина_Type":"StandardODATA.Catalog_Дисциплины",
                    "Преподаватель_Key":"72b16863-7e0a-11e5-80bd-d4ae52b28930",
                    "Аудитория_Key":"AUD1",
                    "Территория_Key":"4197d8a9-cc2e-11e5-80c0-001e67e6bfa8"
                },
                {
                    "LineNumber":"3",
                    "Active":true,
                    "Организация_Key":"db823ef1-eb90-4fd1-b88d-207dd67b9e20",
                    "ПериодОбучения_Key":"31793bbe-cc16-11e5-80c0-001e67e6bfa8",
                    "УчебнаяГруппа_Key":"G5",
                    "ДеньНедели":"Среда",
                    "ВидНедели":"Четная",
                    "Подгруппа":1,
                    "НомерПары":3,
                    "ДатаРасписания":"2016-02-17T00:00:00",
                    "Дисциплина":"L3",
                    "Дисциплина_Type":"StandardODATA.Catalog_Дисциплины",
                    "Преподаватель_Key":"72b16308-7e0a-11e5-80bd-d4ae52b28930",
                    "Аудитория_Key":"AUD2",
                    "Территория_Key":"4197d8a9-cc2e-11e5-80c0-001e67e6bfa8"
                },
                {
                    "LineNumber":"4",
                    "Active":true,
                    "Организация_Key":"db823ef1-eb90-4fd1-b88d-207dd67b9e20",
                    "ПериодОбучения_Key":"31793bbe-cc16-11e5-80c0-001e67e6bfa8",
                    "УчебнаяГруппа_Key":"G5",
                    "ДеньНедели":"Среда",
                    "ВидНедели":"Четная",
                    "Подгруппа":1,
                    "НомерПары":4,
                    "ДатаРасписания":"2016-02-17T00:00:00",
                    "Дисциплина":"L8",
                    "Дисциплина_Type":"StandardODATA.Catalog_Дисциплины",
                    "Преподаватель_Key":"72b162fe-7e0a-11e5-80bd-d4ae52b28930",
                    "Аудитория_Key":"AUD1",
                    "Территория_Key":"4197d8a9-cc2e-11e5-80c0-001e67e6bfa8"
                }
            ]
        },
        { /* Четверг */
            "Recorder_Key":"472d9b3e-d312-11e5-80c0-001e67e6bfa8",
            "RecordSet":[
                {
                    "LineNumber":"1",
                    "Active":true,
                    "Организация_Key":"db823ef1-eb90-4fd1-b88d-207dd67b9e20",
                    "ПериодОбучения_Key":"31793bbe-cc16-11e5-80c0-001e67e6bfa8",
                    "УчебнаяГруппа_Key":"G5",
                    "ДеньНедели":"Четверг",
                    "ВидНедели":"Четная",
                    "Подгруппа":1,
                    "НомерПары":1,
                    "ДатаРасписания":"2016-02-18T00:00:00",
                    "Дисциплина":"L1",
                    "Дисциплина_Type":"StandardODATA.Catalog_Дисциплины",
                    "Преподаватель_Key":"72b161f3-7e0a-11e5-80bd-d4ae52b28930",
                    "Аудитория_Key":"AUD3",
                    "Территория_Key":"4197d8a9-cc2e-11e5-80c0-001e67e6bfa8"
                },
                {
                    "LineNumber":"2",
                    "Active":true,
                    "Организация_Key":"db823ef1-eb90-4fd1-b88d-207dd67b9e20",
                    "ПериодОбучения_Key":"31793bbe-cc16-11e5-80c0-001e67e6bfa8",
                    "УчебнаяГруппа_Key":"G5",
                    "ДеньНедели":"Четверг",
                    "ВидНедели":"Четная",
                    "Подгруппа":1,
                    "НомерПары":2,
                    "ДатаРасписания":"2016-02-18T00:00:00",
                    "Дисциплина":"L2",
                    "Дисциплина_Type":"StandardODATA.Catalog_Дисциплины",
                    "Преподаватель_Key":"72b16469-7e0a-11e5-80bd-d4ae52b28930",
                    "Аудитория_Key":"AUD3",
                    "Территория_Key":"4197d8a9-cc2e-11e5-80c0-001e67e6bfa8"
                },
                {
                    "LineNumber":"3",
                    "Active":true,
                    "Организация_Key":"db823ef1-eb90-4fd1-b88d-207dd67b9e20",
                    "ПериодОбучения_Key":"31793bbe-cc16-11e5-80c0-001e67e6bfa8",
                    "УчебнаяГруппа_Key":"G5",
                    "ДеньНедели":"Четверг",
                    "ВидНедели":"Четная",
                    "Подгруппа":1,
                    "НомерПары":3,
                    "ДатаРасписания":"2016-02-18T00:00:00",
                    "Дисциплина":"L2",
                    "Дисциплина_Type":"StandardODATA.Catalog_Дисциплины",
                    "Преподаватель_Key":"72b16842-7e0a-11e5-80bd-d4ae52b28930",
                    "Аудитория_Key":"AUD1",
                    "Территория_Key":"4197d8a9-cc2e-11e5-80c0-001e67e6bfa8"
                },
                {
                    "LineNumber":"4",
                    "Active":true,
                    "Организация_Key":"db823ef1-eb90-4fd1-b88d-207dd67b9e20",
                    "ПериодОбучения_Key":"31793bbe-cc16-11e5-80c0-001e67e6bfa8",
                    "УчебнаяГруппа_Key":"G5",
                    "ДеньНедели":"Четверг",
                    "ВидНедели":"Четная",
                    "Подгруппа":1,
                    "НомерПары":4,
                    "ДатаРасписания":"2016-02-18T00:00:00",
                    "Дисциплина":"L3",
                    "Дисциплина_Type":"StandardODATA.Catalog_Дисциплины",
                    "Преподаватель_Key":"72b16728-7e0a-11e5-80bd-d4ae52b28930",
                    "Аудитория_Key":"AUD3",
                    "Территория_Key":"4197d8a9-cc2e-11e5-80c0-001e67e6bfa8"
                }
            ]
        },
        { /* Пятница */
            "Recorder_Key":"ba8f2834-d312-11e5-80c0-001e67e6bfa8",
            "RecordSet":[
                {
                    "LineNumber":"1",
                    "Active":true,
                    "Организация_Key":"db823ef1-eb90-4fd1-b88d-207dd67b9e20",
                    "ПериодОбучения_Key":"31793bbe-cc16-11e5-80c0-001e67e6bfa8",
                    "УчебнаяГруппа_Key":"G5",
                    "ДеньНедели":"Пятница",
                    "ВидНедели":"Четная",
                    "Подгруппа":1,
                    "НомерПары":1,
                    "ДатаРасписания":"2016-02-19T00:00:00",
                    "Дисциплина":"L2",
                    "Дисциплина_Type":"StandardODATA.Catalog_Дисциплины",
                    "Преподаватель_Key":"72b1687e-7e0a-11e5-80bd-d4ae52b28930",
                    "Аудитория_Key":"AUD2",
                    "Территория_Key":"4197d8a9-cc2e-11e5-80c0-001e67e6bfa8"
                }
            ]
        }
    
	]
}