{
"odata.metadata": "http://88.87.88.93:3280/college_test/odata/standard.odata/$metadata#Catalog_Аудитории",
"value": [{
"Ref_Key": "AUD1",
"DataVersion": "AAAAAAAAKx4=",
"DeletionMark": false,
"Owner_Key": "4197d8a9-cc2e-11e5-80c0-001e67e6bfa8",
"Parent_Key": "00000000-0000-0000-0000-000000000000",
"IsFolder": false,
"Code": "13",
"Description": "Аудитория 202",
"Вместимость": "0",
"ВидАудитории_Key": "193a8c30-deb3-4ae2-b358-c713a3587b33",
"ИзучаемыеДисциплины": [],
"ДополнительныеРеквизиты": [],
"Owner@navigationLinkUrl": "Catalog_Аудитории(guid'5ee4020c-cc2e-11e5-80c0-001e67e6bfa8')/Owner",
"ВидАудитории@navigationLinkUrl": "Catalog_Аудитории(guid'5ee4020c-cc2e-11e5-80c0-001e67e6bfa8')/ВидАудитории"
},
{
"Ref_Key": "AUD2",
"DataVersion": "AAAAAAAAKx4=",
"DeletionMark": false,
"Owner_Key": "4197d8a9-cc2e-11e5-80c0-001e67e6bfa8",
"Parent_Key": "00000000-0000-0000-0000-000000000000",
"IsFolder": false,
"Code": "13",
"Description": "Аудитория 343",
"Вместимость": "0",
"ВидАудитории_Key": "193a8c30-deb3-4ae2-b358-c713a3587b33",
"ИзучаемыеДисциплины": [],
"ДополнительныеРеквизиты": [],
"Owner@navigationLinkUrl": "Catalog_Аудитории(guid'5ee4020c-cc2e-11e5-80c0-001e67e6bfa8')/Owner",
"ВидАудитории@navigationLinkUrl": "Catalog_Аудитории(guid'5ee4020c-cc2e-11e5-80c0-001e67e6bfa8')/ВидАудитории"
},
{
"Ref_Key": "AUD3",
"DataVersion": "AAAAAAAAKx4=",
"DeletionMark": false,
"Owner_Key": "4197d8a9-cc2e-11e5-80c0-001e67e6bfa8",
"Parent_Key": "00000000-0000-0000-0000-000000000000",
"IsFolder": false,
"Code": "13",
"Description": "Аудитория 213",
"Вместимость": "0",
"ВидАудитории_Key": "193a8c30-deb3-4ae2-b358-c713a3587b33",
"ИзучаемыеДисциплины": [],
"ДополнительныеРеквизиты": [],
"Owner@navigationLinkUrl": "Catalog_Аудитории(guid'5ee4020c-cc2e-11e5-80c0-001e67e6bfa8')/Owner",
"ВидАудитории@navigationLinkUrl": "Catalog_Аудитории(guid'5ee4020c-cc2e-11e5-80c0-001e67e6bfa8')/ВидАудитории"
}

]
}