{
"odata.metadata": "http://88.87.88.93:3280/college_test/odata/standard.odata/$metadata#InformationRegister_ДвижениеКонтингента",
"value": 
[
	{
		"RecordSet": [
			{
				"Period": "2014-08-20T00:00:00",
				"LineNumber": "1",
				"Active": true,
				"Студент_Key": "S1",
				"Статус": "Студент",
				"Группа_Key": "G1",
				"ВидФинансирования": "Коммерческое"
			}
		]
	},
	{
		"RecordSet": [
			{
				"Period": "2014-08-20T00:00:00",
				"LineNumber": "1",
				"Active": true,
				"Студент_Key": "S2",
				"Статус": "Студент",
				"Группа_Key": "G1",
				"ВидФинансирования": "Коммерческое"
			}
		]
	},
	{
		"RecordSet": [
		{
				"Period": "2014-08-20T00:00:00",
				"LineNumber": "1",
				"Active": true,
				"Студент_Key": "S3",
				"Статус": "Студент",
				"Группа_Key": "G2",
				"ВидФинансирования": "Коммерческое"
			}
		]
	},
	{
		"RecordSet": [
			{
				"Period": "2014-08-20T00:00:00",
				"LineNumber": "1",
				"Active": true,
				"Студент_Key": "S4",
				"Статус": "Студент",
				"Группа_Key": "G2",
				"ВидФинансирования": "Коммерческое"
			}
		]
	},
	{
		"RecordSet": [
			{
				"Period": "2014-08-20T00:00:00",
				"LineNumber": "1",
				"Active": true,
				"Студент_Key": "S5",
				"Статус": "Студент",
				"Группа_Key": "G3",
				"ВидФинансирования": "Коммерческое"
			}
		]
	},
	{
		"RecordSet": [
			{
				"Period": "2014-08-20T00:00:00",
				"LineNumber": "1",
				"Active": true,
				"Студент_Key": "S6",
				"Статус": "Студент",
				"Группа_Key": "G3",
				"ВидФинансирования": "Коммерческое"
			}
		]
	},
	{
		"RecordSet": [
			{
				"Period": "2014-08-20T00:00:00",
				"LineNumber": "1",
				"Active": true,
				"Студент_Key": "S7",
				"Статус": "Студент",
				"Группа_Key": "G4",
				"ВидФинансирования": "Коммерческое"
			}
		]
	},
	{
		"RecordSet": [
			{
				"Period": "2014-08-20T00:00:00",
				"LineNumber": "1",
				"Active": true,
				"Студент_Key": "S8",
				"Статус": "Студент",
				"Группа_Key": "G4",
				"ВидФинансирования": "Коммерческое"
			}
		]
	},
	{
		"RecordSet": [
			{
				"Period": "2014-08-20T00:00:00",
				"LineNumber": "1",
				"Active": true,
				"Студент_Key": "S9",
				"Статус": "Студент",
				"Группа_Key": "G5",
				"ВидФинансирования": "Коммерческое"
			}
		]
	},
	{
		"RecordSet": [
			{
				"Period": "2014-08-20T00:00:00",
				"LineNumber": "1",
				"Active": true,
				"Студент_Key": "S10",
				"Статус": "Студент",
				"Группа_Key": "G5",
				"ВидФинансирования": "Коммерческое"
			}
		]
	},
		{
		"RecordSet": [
			{
				"Period": "2014-08-20T00:00:00",
				"LineNumber": "1",
				"Active": true,
				"Студент_Key": "S11",
				"Статус": "Студент",
				"Группа_Key": "G3",
				"ВидФинансирования": "Коммерческое"
			}
		]
	}
	

]}