{
"odata.metadata": "http://88.87.88.93:3280/college_test/odata/standard.odata/$metadata#Catalog_УчебныеГруппы",
"value":
	[
		{
		"Ref_Key": "G1",
		"Description": "11-БЗ",
		"Специальность_Key": "042612c0-f3c0-11e4-80bc-d4ae52b28930",
		"Специализация_Key": "3ab5b851-bb78-11e5-80bd-d4ae52b28930"
		},
		{
		"Ref_Key": "G2",
		"Description": "11-БЗ",
		"Специальность_Key": "042612c0-f3c0-11e4-80bc-d4ae52b28930",
		"Специализация_Key": "3ab5b851-bb78-11e5-80bd-d4ae52b28930"
		},
		{
		"Ref_Key": "G3",
		"Description": "11-БЗ",
		"Специальность_Key": "042612c0-f3c0-11e4-80bc-d4ae52b28930",
		"Специализация_Key": "3ab5b851-bb78-11e5-80bd-d4ae52b28930"
		},
		{
		"Ref_Key": "G4",
		"Description": "11-БЗ",
		"Специальность_Key": "042612c0-f3c0-11e4-80bc-d4ae52b28930",
		"Специализация_Key": "3ab5b851-bb78-11e5-80bd-d4ae52b28930"
		},
		{
		"Ref_Key": "G5",
		"Description": "11-БЗ",
		"Специальность_Key": "042612c0-f3c0-11e4-80bc-d4ae52b28930",
		"Специализация_Key": "3ab5b851-bb78-11e5-80bd-d4ae52b28930"
		}
	]
}